/pnfs/desy.de/atlas/dq2/atlaslocalgroupdisk/rucio/mc16_13TeV/18/6d/EVNT.14335646._000001.pool.root.1                                                                                                            
/pnfs/desy.de/atlas/dq2/atlaslocalgroupdisk/rucio/mc16_13TeV/a9/91/EVNT.14335646._000002.pool.root.1                                                                                                            
/pnfs/desy.de/atlas/dq2/atlaslocalgroupdisk/rucio/mc16_13TeV/ba/22/EVNT.14335646._000003.pool.root.1                                                                                                            
/pnfs/desy.de/atlas/dq2/atlaslocalgroupdisk/rucio/mc16_13TeV/e0/6e/EVNT.14335646._000004.pool.root.1                                                                                                            
/pnfs/desy.de/atlas/dq2/atlaslocalgroupdisk/rucio/mc16_13TeV/5f/76/EVNT.14335646._000005.pool.root.1                                                                                                            
/pnfs/desy.de/atlas/dq2/atlaslocalgroupdisk/rucio/mc16_13TeV/28/6d/EVNT.14335646._000006.pool.root.1                                                                                                            
/pnfs/desy.de/atlas/dq2/atlaslocalgroupdisk/rucio/mc16_13TeV/71/61/EVNT.14335646._000007.pool.root.1                                                                                                            
/pnfs/desy.de/atlas/dq2/atlaslocalgroupdisk/rucio/mc16_13TeV/35/73/EVNT.14335646._000008.pool.root.1                                                                                                            
/pnfs/desy.de/atlas/dq2/atlaslocalgroupdisk/rucio/mc16_13TeV/fe/2b/EVNT.14335646._000009.pool.root.1                                                                                                            
/pnfs/desy.de/atlas/dq2/atlaslocalgroupdisk/rucio/mc16_13TeV/c0/47/EVNT.14335646._000010.pool.root.1                                                                                                            
/pnfs/desy.de/atlas/dq2/atlaslocalgroupdisk/rucio/mc16_13TeV/c1/fe/EVNT.14335646._000012.pool.root.1                                                                                                            
/pnfs/desy.de/atlas/dq2/atlaslocalgroupdisk/rucio/mc16_13TeV/2f/ce/EVNT.14335646._000013.pool.root.1                                                                                                            
/pnfs/desy.de/atlas/dq2/atlaslocalgroupdisk/rucio/mc16_13TeV/25/98/EVNT.14335646._000015.pool.root.1                                                                                                            
/pnfs/desy.de/atlas/dq2/atlaslocalgroupdisk/rucio/mc16_13TeV/9b/c7/EVNT.14335646._000016.pool.root.1                                                                                                            
/pnfs/desy.de/atlas/dq2/atlaslocalgroupdisk/rucio/mc16_13TeV/e2/4e/EVNT.14335646._000017.pool.root.1                                                                                                            
/pnfs/desy.de/atlas/dq2/atlaslocalgroupdisk/rucio/mc16_13TeV/98/57/EVNT.14335646._000018.pool.root.1                                                                                                            
/pnfs/desy.de/atlas/dq2/atlaslocalgroupdisk/rucio/mc16_13TeV/bd/94/EVNT.14335646._000022.pool.root.1                                                                                                            
/pnfs/desy.de/atlas/dq2/atlaslocalgroupdisk/rucio/mc16_13TeV/0c/7e/EVNT.14335646._000023.pool.root.1                                                                                                            
/pnfs/desy.de/atlas/dq2/atlaslocalgroupdisk/rucio/mc16_13TeV/43/7c/EVNT.14335646._000024.pool.root.1                                                                                                            
/pnfs/desy.de/atlas/dq2/atlaslocalgroupdisk/rucio/mc16_13TeV/6f/66/EVNT.14335646._000025.pool.root.1                                                                                                            
/pnfs/desy.de/atlas/dq2/atlaslocalgroupdisk/rucio/mc16_13TeV/e9/f2/EVNT.14335646._000026.pool.root.1                                                                                                            
/pnfs/desy.de/atlas/dq2/atlaslocalgroupdisk/rucio/mc16_13TeV/ab/c0/EVNT.14335646._000027.pool.root.1                                                                                                            
/pnfs/desy.de/atlas/dq2/atlaslocalgroupdisk/rucio/mc16_13TeV/9d/f4/EVNT.14335646._000028.pool.root.1                                                                                                            
/pnfs/desy.de/atlas/dq2/atlaslocalgroupdisk/rucio/mc16_13TeV/03/18/EVNT.14335646._000029.pool.root.1                                                                                                            
/pnfs/desy.de/atlas/dq2/atlaslocalgroupdisk/rucio/mc16_13TeV/0c/92/EVNT.14335646._000030.pool.root.1                                                                                                            
/pnfs/desy.de/atlas/dq2/atlaslocalgroupdisk/rucio/mc16_13TeV/4d/65/EVNT.14335646._000031.pool.root.1                                                                                                            
/pnfs/desy.de/atlas/dq2/atlaslocalgroupdisk/rucio/mc16_13TeV/50/fa/EVNT.14335646._000032.pool.root.1                                                                                                            
/pnfs/desy.de/atlas/dq2/atlaslocalgroupdisk/rucio/mc16_13TeV/64/b6/EVNT.14335646._000033.pool.root.1                                                                                                            
/pnfs/desy.de/atlas/dq2/atlaslocalgroupdisk/rucio/mc16_13TeV/f5/8a/EVNT.14335646._000034.pool.root.1                                                                                                            
/pnfs/desy.de/atlas/dq2/atlaslocalgroupdisk/rucio/mc16_13TeV/02/69/EVNT.14335646._000035.pool.root.1                                                                                                            
/pnfs/desy.de/atlas/dq2/atlaslocalgroupdisk/rucio/mc16_13TeV/9c/e2/EVNT.14335646._000036.pool.root.1                                                                                                            
/pnfs/desy.de/atlas/dq2/atlaslocalgroupdisk/rucio/mc16_13TeV/17/34/EVNT.14335646._000037.pool.root.1                                                                                                            
/pnfs/desy.de/atlas/dq2/atlaslocalgroupdisk/rucio/mc16_13TeV/04/f3/EVNT.14335646._000038.pool.root.1                                                                                                            
/pnfs/desy.de/atlas/dq2/atlaslocalgroupdisk/rucio/mc16_13TeV/f8/1d/EVNT.14335646._000039.pool.root.1                                                                                                            
/pnfs/desy.de/atlas/dq2/atlaslocalgroupdisk/rucio/mc16_13TeV/2b/4f/EVNT.14335646._000040.pool.root.1                                                                                                            
/pnfs/desy.de/atlas/dq2/atlaslocalgroupdisk/rucio/mc16_13TeV/1c/13/EVNT.14335646._000041.pool.root.1                                                                                                            
/pnfs/desy.de/atlas/dq2/atlaslocalgroupdisk/rucio/mc16_13TeV/38/26/EVNT.14335646._000042.pool.root.1                                                                                                            
/pnfs/desy.de/atlas/dq2/atlaslocalgroupdisk/rucio/mc16_13TeV/ff/82/EVNT.14335646._000043.pool.root.1                                                                                                            
/pnfs/desy.de/atlas/dq2/atlaslocalgroupdisk/rucio/mc16_13TeV/54/3a/EVNT.14335646._000044.pool.root.1                                                                                                            
/pnfs/desy.de/atlas/dq2/atlaslocalgroupdisk/rucio/mc16_13TeV/65/e1/EVNT.14335646._000045.pool.root.1                                                                                                            
/pnfs/desy.de/atlas/dq2/atlaslocalgroupdisk/rucio/mc16_13TeV/7c/7a/EVNT.14335646._000046.pool.root.1                                                                                                            
/pnfs/desy.de/atlas/dq2/atlaslocalgroupdisk/rucio/mc16_13TeV/83/26/EVNT.14335646._000047.pool.root.1                                                                                                            
/pnfs/desy.de/atlas/dq2/atlaslocalgroupdisk/rucio/mc16_13TeV/7a/a4/EVNT.14335646._000048.pool.root.1                                                                                                            
/pnfs/desy.de/atlas/dq2/atlaslocalgroupdisk/rucio/mc16_13TeV/41/45/EVNT.14335646._000049.pool.root.1                                                                                                            
/pnfs/desy.de/atlas/dq2/atlaslocalgroupdisk/rucio/mc16_13TeV/21/ff/EVNT.14335646._000050.pool.root.1                                                                                                            
/pnfs/desy.de/atlas/dq2/atlaslocalgroupdisk/rucio/mc16_13TeV/e9/1d/EVNT.14335646._000051.pool.root.1                                                                                                            
/pnfs/desy.de/atlas/dq2/atlaslocalgroupdisk/rucio/mc16_13TeV/5c/95/EVNT.14335646._000052.pool.root.1                                                                                                            
/pnfs/desy.de/atlas/dq2/atlaslocalgroupdisk/rucio/mc16_13TeV/5b/5d/EVNT.14335646._000053.pool.root.1                                                                                                            
/pnfs/desy.de/atlas/dq2/atlaslocalgroupdisk/rucio/mc16_13TeV/54/b3/EVNT.14335646._000054.pool.root.1                                                                                                            
/pnfs/desy.de/atlas/dq2/atlaslocalgroupdisk/rucio/mc16_13TeV/ea/87/EVNT.14335646._000055.pool.root.1                                                                                                            
/pnfs/desy.de/atlas/dq2/atlaslocalgroupdisk/rucio/mc16_13TeV/08/47/EVNT.14335646._000056.pool.root.1                                                                                                            
/pnfs/desy.de/atlas/dq2/atlaslocalgroupdisk/rucio/mc16_13TeV/a3/95/EVNT.14335646._000057.pool.root.1                                                                                                            
/pnfs/desy.de/atlas/dq2/atlaslocalgroupdisk/rucio/mc16_13TeV/fb/1a/EVNT.14335646._000058.pool.root.1                                                                                                            
/pnfs/desy.de/atlas/dq2/atlaslocalgroupdisk/rucio/mc16_13TeV/8c/8f/EVNT.14335646._000059.pool.root.1                                                                                                            
/pnfs/desy.de/atlas/dq2/atlaslocalgroupdisk/rucio/mc16_13TeV/d0/66/EVNT.14335646._000060.pool.root.1                                                                                                            
/pnfs/desy.de/atlas/dq2/atlaslocalgroupdisk/rucio/mc16_13TeV/b1/79/EVNT.14335646._000061.pool.root.1                                                                                                            
/pnfs/desy.de/atlas/dq2/atlaslocalgroupdisk/rucio/mc16_13TeV/b4/bb/EVNT.14335646._000062.pool.root.1                                                                                                            
/pnfs/desy.de/atlas/dq2/atlaslocalgroupdisk/rucio/mc16_13TeV/72/4c/EVNT.14335646._000063.pool.root.1                                                                                                            
/pnfs/desy.de/atlas/dq2/atlaslocalgroupdisk/rucio/mc16_13TeV/d6/16/EVNT.14335646._000064.pool.root.1                                                                                                            
/pnfs/desy.de/atlas/dq2/atlaslocalgroupdisk/rucio/mc16_13TeV/58/09/EVNT.14335646._000065.pool.root.1                                                                                                            
/pnfs/desy.de/atlas/dq2/atlaslocalgroupdisk/rucio/mc16_13TeV/a7/16/EVNT.14335646._000066.pool.root.1                                                                                                            
/pnfs/desy.de/atlas/dq2/atlaslocalgroupdisk/rucio/mc16_13TeV/6d/23/EVNT.14335646._000067.pool.root.1                                                                                                            
/pnfs/desy.de/atlas/dq2/atlaslocalgroupdisk/rucio/mc16_13TeV/de/84/EVNT.14335646._000068.pool.root.1                                                                                                            
/pnfs/desy.de/atlas/dq2/atlaslocalgroupdisk/rucio/mc16_13TeV/4b/08/EVNT.14335646._000069.pool.root.1                                                                                                            
/pnfs/desy.de/atlas/dq2/atlaslocalgroupdisk/rucio/mc16_13TeV/79/29/EVNT.14335646._000070.pool.root.1                                                                                                            
/pnfs/desy.de/atlas/dq2/atlaslocalgroupdisk/rucio/mc16_13TeV/5a/c7/EVNT.14335646._000071.pool.root.1                                                                                                            
/pnfs/desy.de/atlas/dq2/atlaslocalgroupdisk/rucio/mc16_13TeV/97/b4/EVNT.14335646._000072.pool.root.1                                                                                                            
/pnfs/desy.de/atlas/dq2/atlaslocalgroupdisk/rucio/mc16_13TeV/38/a8/EVNT.14335646._000073.pool.root.1                                                                                                            
/pnfs/desy.de/atlas/dq2/atlaslocalgroupdisk/rucio/mc16_13TeV/cd/1e/EVNT.14335646._000074.pool.root.1                                                                                                            
/pnfs/desy.de/atlas/dq2/atlaslocalgroupdisk/rucio/mc16_13TeV/19/5d/EVNT.14335646._000075.pool.root.1                                                                                                            
/pnfs/desy.de/atlas/dq2/atlaslocalgroupdisk/rucio/mc16_13TeV/ac/56/EVNT.14335646._000076.pool.root.1                                                                                                            
/pnfs/desy.de/atlas/dq2/atlaslocalgroupdisk/rucio/mc16_13TeV/7e/b4/EVNT.14335646._000077.pool.root.1                                                                                                            
/pnfs/desy.de/atlas/dq2/atlaslocalgroupdisk/rucio/mc16_13TeV/9d/8d/EVNT.14335646._000078.pool.root.1                                                                                                            
/pnfs/desy.de/atlas/dq2/atlaslocalgroupdisk/rucio/mc16_13TeV/6d/26/EVNT.14335646._000079.pool.root.1                                                                                                            
/pnfs/desy.de/atlas/dq2/atlaslocalgroupdisk/rucio/mc16_13TeV/d4/e3/EVNT.14335646._000081.pool.root.1                                                                                                            
/pnfs/desy.de/atlas/dq2/atlaslocalgroupdisk/rucio/mc16_13TeV/20/64/EVNT.14335646._000082.pool.root.1                                                                                                            
/pnfs/desy.de/atlas/dq2/atlaslocalgroupdisk/rucio/mc16_13TeV/7e/0f/EVNT.14335646._000083.pool.root.1                                                                                                            
/pnfs/desy.de/atlas/dq2/atlaslocalgroupdisk/rucio/mc16_13TeV/2f/b7/EVNT.14335646._000084.pool.root.1                                                                                                            
/pnfs/desy.de/atlas/dq2/atlaslocalgroupdisk/rucio/mc16_13TeV/dc/3f/EVNT.14335646._000085.pool.root.1                                                                                                            
/pnfs/desy.de/atlas/dq2/atlaslocalgroupdisk/rucio/mc16_13TeV/d2/c3/EVNT.14335646._000086.pool.root.1                                                                                                            
/pnfs/desy.de/atlas/dq2/atlaslocalgroupdisk/rucio/mc16_13TeV/87/9e/EVNT.14335646._000087.pool.root.1                                                                                                            
/pnfs/desy.de/atlas/dq2/atlaslocalgroupdisk/rucio/mc16_13TeV/c3/1f/EVNT.14335646._000088.pool.root.1                                                                                                            
/pnfs/desy.de/atlas/dq2/atlaslocalgroupdisk/rucio/mc16_13TeV/c1/be/EVNT.14335646._000089.pool.root.1                                                                                                            
/pnfs/desy.de/atlas/dq2/atlaslocalgroupdisk/rucio/mc16_13TeV/44/6e/EVNT.14335646._000090.pool.root.1                                                                                                            
/pnfs/desy.de/atlas/dq2/atlaslocalgroupdisk/rucio/mc16_13TeV/9b/aa/EVNT.14335646._000091.pool.root.1                                                                                                            
/pnfs/desy.de/atlas/dq2/atlaslocalgroupdisk/rucio/mc16_13TeV/1e/5b/EVNT.14335646._000092.pool.root.1                                                                                                            
/pnfs/desy.de/atlas/dq2/atlaslocalgroupdisk/rucio/mc16_13TeV/a4/69/EVNT.14335646._000093.pool.root.1                                                                                                            
/pnfs/desy.de/atlas/dq2/atlaslocalgroupdisk/rucio/mc16_13TeV/1c/11/EVNT.14335646._000094.pool.root.1                                                                                                            
/pnfs/desy.de/atlas/dq2/atlaslocalgroupdisk/rucio/mc16_13TeV/12/d9/EVNT.14335646._000095.pool.root.1                                                                                                            
/pnfs/desy.de/atlas/dq2/atlaslocalgroupdisk/rucio/mc16_13TeV/f9/99/EVNT.14335646._000096.pool.root.1                                                                                                            
/pnfs/desy.de/atlas/dq2/atlaslocalgroupdisk/rucio/mc16_13TeV/f2/5f/EVNT.14335646._000097.pool.root.1                                                                                                            
/pnfs/desy.de/atlas/dq2/atlaslocalgroupdisk/rucio/mc16_13TeV/2a/7e/EVNT.14335646._000098.pool.root.1                                                                                                            
/pnfs/desy.de/atlas/dq2/atlaslocalgroupdisk/rucio/mc16_13TeV/72/61/EVNT.14335646._000099.pool.root.1                                                                                                            
/pnfs/desy.de/atlas/dq2/atlaslocalgroupdisk/rucio/mc16_13TeV/40/75/EVNT.14335646._000100.pool.root.1                                                                                                            
/pnfs/desy.de/atlas/dq2/atlaslocalgroupdisk/rucio/mc16_13TeV/eb/c9/EVNT.14335646._000101.pool.root.1                                                                                                            
/pnfs/desy.de/atlas/dq2/atlaslocalgroupdisk/rucio/mc16_13TeV/3c/9b/EVNT.14335646._000102.pool.root.1                                                                                                            
/pnfs/desy.de/atlas/dq2/atlaslocalgroupdisk/rucio/mc16_13TeV/55/1d/EVNT.14335646._000103.pool.root.1                                                                                                            
/pnfs/desy.de/atlas/dq2/atlaslocalgroupdisk/rucio/mc16_13TeV/e5/4b/EVNT.14335646._000104.pool.root.1                                                                                                            
/pnfs/desy.de/atlas/dq2/atlaslocalgroupdisk/rucio/mc16_13TeV/3c/b8/EVNT.14335646._000105.pool.root.1                                                                                                            
/pnfs/desy.de/atlas/dq2/atlaslocalgroupdisk/rucio/mc16_13TeV/f6/68/EVNT.14335646._000106.pool.root.1                                                                                                            
