/pnfs/desy.de/atlas/dq2/atlaslocalgroupdisk/rucio/mc16_13TeV/1a/10/EVNT.14335733._000001.pool.root.1                                                                                                                                 
/pnfs/desy.de/atlas/dq2/atlaslocalgroupdisk/rucio/mc16_13TeV/29/a5/EVNT.14335733._000002.pool.root.1                                                                                                                                 
/pnfs/desy.de/atlas/dq2/atlaslocalgroupdisk/rucio/mc16_13TeV/d6/5b/EVNT.14335733._000003.pool.root.1                                                                                                                                 
/pnfs/desy.de/atlas/dq2/atlaslocalgroupdisk/rucio/mc16_13TeV/7f/16/EVNT.14335733._000004.pool.root.1                                                                                                                                 
/pnfs/desy.de/atlas/dq2/atlaslocalgroupdisk/rucio/mc16_13TeV/26/76/EVNT.14335733._000005.pool.root.1                                                                                                                                 
/pnfs/desy.de/atlas/dq2/atlaslocalgroupdisk/rucio/mc16_13TeV/b0/83/EVNT.14335733._000006.pool.root.1                                                                                                                                 
/pnfs/desy.de/atlas/dq2/atlaslocalgroupdisk/rucio/mc16_13TeV/35/e4/EVNT.14335733._000007.pool.root.1                                                                                                                                 
/pnfs/desy.de/atlas/dq2/atlaslocalgroupdisk/rucio/mc16_13TeV/7b/d3/EVNT.14335733._000008.pool.root.1                                                                                                                                 
/pnfs/desy.de/atlas/dq2/atlaslocalgroupdisk/rucio/mc16_13TeV/cd/7b/EVNT.14335733._000009.pool.root.1                                                                                                                                 
/pnfs/desy.de/atlas/dq2/atlaslocalgroupdisk/rucio/mc16_13TeV/60/cd/EVNT.14335733._000010.pool.root.1                                                                                                                                 
/pnfs/desy.de/atlas/dq2/atlaslocalgroupdisk/rucio/mc16_13TeV/54/46/EVNT.14335733._000011.pool.root.1                                                                                                                                 
/pnfs/desy.de/atlas/dq2/atlaslocalgroupdisk/rucio/mc16_13TeV/fb/22/EVNT.14335733._000012.pool.root.1                                                                                                                                 
/pnfs/desy.de/atlas/dq2/atlaslocalgroupdisk/rucio/mc16_13TeV/df/61/EVNT.14335733._000013.pool.root.1                                                                                                                                 
/pnfs/desy.de/atlas/dq2/atlaslocalgroupdisk/rucio/mc16_13TeV/ae/94/EVNT.14335733._000014.pool.root.1                                                                                                                                 
/pnfs/desy.de/atlas/dq2/atlaslocalgroupdisk/rucio/mc16_13TeV/1f/e0/EVNT.14335733._000015.pool.root.1                                                                                                                                 
/pnfs/desy.de/atlas/dq2/atlaslocalgroupdisk/rucio/mc16_13TeV/e2/a1/EVNT.14335733._000016.pool.root.1                                                                                                                                 
/pnfs/desy.de/atlas/dq2/atlaslocalgroupdisk/rucio/mc16_13TeV/bc/65/EVNT.14335733._000017.pool.root.1                                                                                                                                 
/pnfs/desy.de/atlas/dq2/atlaslocalgroupdisk/rucio/mc16_13TeV/b3/47/EVNT.14335733._000018.pool.root.1                                                                                                                                 
/pnfs/desy.de/atlas/dq2/atlaslocalgroupdisk/rucio/mc16_13TeV/b1/ec/EVNT.14335733._000019.pool.root.1                                                                                                                                 
/pnfs/desy.de/atlas/dq2/atlaslocalgroupdisk/rucio/mc16_13TeV/54/3e/EVNT.14335733._000020.pool.root.1                                                                                                                                 
/pnfs/desy.de/atlas/dq2/atlaslocalgroupdisk/rucio/mc16_13TeV/18/78/EVNT.14335733._000021.pool.root.1                                                                                                                                 
/pnfs/desy.de/atlas/dq2/atlaslocalgroupdisk/rucio/mc16_13TeV/6d/1b/EVNT.14335733._000022.pool.root.1                                                                                                                                 
/pnfs/desy.de/atlas/dq2/atlaslocalgroupdisk/rucio/mc16_13TeV/18/78/EVNT.14335733._000023.pool.root.1                                                                                                                                 
/pnfs/desy.de/atlas/dq2/atlaslocalgroupdisk/rucio/mc16_13TeV/3d/d7/EVNT.14335733._000024.pool.root.1                                                                                                                                 
/pnfs/desy.de/atlas/dq2/atlaslocalgroupdisk/rucio/mc16_13TeV/86/b8/EVNT.14335733._000025.pool.root.1                                                                                                                                 
/pnfs/desy.de/atlas/dq2/atlaslocalgroupdisk/rucio/mc16_13TeV/8b/96/EVNT.14335733._000026.pool.root.1                                                                                                                                 
/pnfs/desy.de/atlas/dq2/atlaslocalgroupdisk/rucio/mc16_13TeV/9e/01/EVNT.14335733._000027.pool.root.1                                                                                                                                 
/pnfs/desy.de/atlas/dq2/atlaslocalgroupdisk/rucio/mc16_13TeV/71/f8/EVNT.14335733._000028.pool.root.1                                                                                                                                 
/pnfs/desy.de/atlas/dq2/atlaslocalgroupdisk/rucio/mc16_13TeV/bd/f9/EVNT.14335733._000029.pool.root.1                                                                                                                                 
/pnfs/desy.de/atlas/dq2/atlaslocalgroupdisk/rucio/mc16_13TeV/52/a1/EVNT.14335733._000030.pool.root.1                                                                                                                                 
/pnfs/desy.de/atlas/dq2/atlaslocalgroupdisk/rucio/mc16_13TeV/27/db/EVNT.14335733._000031.pool.root.1                                                                                                                                 
/pnfs/desy.de/atlas/dq2/atlaslocalgroupdisk/rucio/mc16_13TeV/c9/c7/EVNT.14335733._000032.pool.root.1                                                                                                                                 
/pnfs/desy.de/atlas/dq2/atlaslocalgroupdisk/rucio/mc16_13TeV/62/7b/EVNT.14335733._000033.pool.root.1                                                                                                                                 
/pnfs/desy.de/atlas/dq2/atlaslocalgroupdisk/rucio/mc16_13TeV/0b/f3/EVNT.14335733._000034.pool.root.1                                                                                                                                 
/pnfs/desy.de/atlas/dq2/atlaslocalgroupdisk/rucio/mc16_13TeV/11/26/EVNT.14335733._000035.pool.root.1                                                                                                                                 
/pnfs/desy.de/atlas/dq2/atlaslocalgroupdisk/rucio/mc16_13TeV/b8/86/EVNT.14335733._000036.pool.root.1                                                                                                                                 
/pnfs/desy.de/atlas/dq2/atlaslocalgroupdisk/rucio/mc16_13TeV/01/eb/EVNT.14335733._000037.pool.root.1                                                                                                                                 
/pnfs/desy.de/atlas/dq2/atlaslocalgroupdisk/rucio/mc16_13TeV/fe/f0/EVNT.14335733._000038.pool.root.1                                                                                                                                 
/pnfs/desy.de/atlas/dq2/atlaslocalgroupdisk/rucio/mc16_13TeV/94/ae/EVNT.14335733._000039.pool.root.1                                                                                                                                 
/pnfs/desy.de/atlas/dq2/atlaslocalgroupdisk/rucio/mc16_13TeV/84/16/EVNT.14335733._000040.pool.root.1                                                                                                                                 
/pnfs/desy.de/atlas/dq2/atlaslocalgroupdisk/rucio/mc16_13TeV/78/5a/EVNT.14335733._000041.pool.root.1                                                                                                                                 
/pnfs/desy.de/atlas/dq2/atlaslocalgroupdisk/rucio/mc16_13TeV/7d/55/EVNT.14335733._000042.pool.root.1                                                                                                                                 
/pnfs/desy.de/atlas/dq2/atlaslocalgroupdisk/rucio/mc16_13TeV/3c/4d/EVNT.14335733._000043.pool.root.1                                                                                                                                 
/pnfs/desy.de/atlas/dq2/atlaslocalgroupdisk/rucio/mc16_13TeV/71/8e/EVNT.14335733._000044.pool.root.1                                                                                                                                 
/pnfs/desy.de/atlas/dq2/atlaslocalgroupdisk/rucio/mc16_13TeV/21/b1/EVNT.14335733._000045.pool.root.1                                                                                                                                 
/pnfs/desy.de/atlas/dq2/atlaslocalgroupdisk/rucio/mc16_13TeV/6e/21/EVNT.14335733._000046.pool.root.1                                                                                                                                 
/pnfs/desy.de/atlas/dq2/atlaslocalgroupdisk/rucio/mc16_13TeV/a6/d9/EVNT.14335733._000047.pool.root.1                                                                                                                                 
/pnfs/desy.de/atlas/dq2/atlaslocalgroupdisk/rucio/mc16_13TeV/0c/ab/EVNT.14335733._000048.pool.root.1                                                                                                                                 
/pnfs/desy.de/atlas/dq2/atlaslocalgroupdisk/rucio/mc16_13TeV/6b/b6/EVNT.14335733._000049.pool.root.1                                                                                                                                 
/pnfs/desy.de/atlas/dq2/atlaslocalgroupdisk/rucio/mc16_13TeV/c1/cd/EVNT.14335733._000050.pool.root.1                                                                                                                                 
/pnfs/desy.de/atlas/dq2/atlaslocalgroupdisk/rucio/mc16_13TeV/29/ff/EVNT.14335733._000051.pool.root.1                                                                                                                                 
/pnfs/desy.de/atlas/dq2/atlaslocalgroupdisk/rucio/mc16_13TeV/af/ca/EVNT.14335733._000052.pool.root.1                                                                                                                                 
/pnfs/desy.de/atlas/dq2/atlaslocalgroupdisk/rucio/mc16_13TeV/fd/bb/EVNT.14335733._000053.pool.root.1                                                                                                                                 
/pnfs/desy.de/atlas/dq2/atlaslocalgroupdisk/rucio/mc16_13TeV/aa/0e/EVNT.14335733._000054.pool.root.1                                                                                                                                 
/pnfs/desy.de/atlas/dq2/atlaslocalgroupdisk/rucio/mc16_13TeV/9b/21/EVNT.14335733._000055.pool.root.1                                                                                                                                 
/pnfs/desy.de/atlas/dq2/atlaslocalgroupdisk/rucio/mc16_13TeV/5d/09/EVNT.14335733._000056.pool.root.1                                                                                                                                 
/pnfs/desy.de/atlas/dq2/atlaslocalgroupdisk/rucio/mc16_13TeV/39/15/EVNT.14335733._000057.pool.root.1                                                                                                                                 
/pnfs/desy.de/atlas/dq2/atlaslocalgroupdisk/rucio/mc16_13TeV/06/63/EVNT.14335733._000058.pool.root.1                                                                                                                                 
/pnfs/desy.de/atlas/dq2/atlaslocalgroupdisk/rucio/mc16_13TeV/4d/b3/EVNT.14335733._000059.pool.root.1                                                                                                                                 
/pnfs/desy.de/atlas/dq2/atlaslocalgroupdisk/rucio/mc16_13TeV/f4/bf/EVNT.14335733._000060.pool.root.1                                                                                                                                 
/pnfs/desy.de/atlas/dq2/atlaslocalgroupdisk/rucio/mc16_13TeV/d5/5a/EVNT.14335733._000086.pool.root.1                                                                                                                                 
/pnfs/desy.de/atlas/dq2/atlaslocalgroupdisk/rucio/mc16_13TeV/f1/79/EVNT.14335733._000087.pool.root.1                                                                                                                                 
/pnfs/desy.de/atlas/dq2/atlaslocalgroupdisk/rucio/mc16_13TeV/71/2b/EVNT.14335733._000088.pool.root.1                                                                                                                                 
/pnfs/desy.de/atlas/dq2/atlaslocalgroupdisk/rucio/mc16_13TeV/3a/5a/EVNT.14335733._000089.pool.root.1                                                                                                                                 
/pnfs/desy.de/atlas/dq2/atlaslocalgroupdisk/rucio/mc16_13TeV/77/3e/EVNT.14335733._000090.pool.root.1                                                                                                                                 
/pnfs/desy.de/atlas/dq2/atlaslocalgroupdisk/rucio/mc16_13TeV/11/52/EVNT.14335733._000091.pool.root.1                                                                                                                                 
/pnfs/desy.de/atlas/dq2/atlaslocalgroupdisk/rucio/mc16_13TeV/01/fd/EVNT.14335733._000092.pool.root.1                                                                                                                                 
/pnfs/desy.de/atlas/dq2/atlaslocalgroupdisk/rucio/mc16_13TeV/35/5b/EVNT.14335733._000093.pool.root.1                                                                                                                                 
/pnfs/desy.de/atlas/dq2/atlaslocalgroupdisk/rucio/mc16_13TeV/cc/6c/EVNT.14335733._000094.pool.root.1                                                                                                                                 
/pnfs/desy.de/atlas/dq2/atlaslocalgroupdisk/rucio/mc16_13TeV/05/29/EVNT.14335733._000095.pool.root.1                                                                                                                                 
/pnfs/desy.de/atlas/dq2/atlaslocalgroupdisk/rucio/mc16_13TeV/fa/03/EVNT.14335733._000096.pool.root.1                                                                                                                                 
/pnfs/desy.de/atlas/dq2/atlaslocalgroupdisk/rucio/mc16_13TeV/91/73/EVNT.14335733._000097.pool.root.1                                                                                                                                 
/pnfs/desy.de/atlas/dq2/atlaslocalgroupdisk/rucio/mc16_13TeV/8d/c7/EVNT.14335733._000098.pool.root.1                                                                                                                                 
/pnfs/desy.de/atlas/dq2/atlaslocalgroupdisk/rucio/mc16_13TeV/3d/8b/EVNT.14335733._000099.pool.root.1                                                                                                                                 
/pnfs/desy.de/atlas/dq2/atlaslocalgroupdisk/rucio/mc16_13TeV/7b/8e/EVNT.14335733._000100.pool.root.1                                                                                                                                 
/pnfs/desy.de/atlas/dq2/atlaslocalgroupdisk/rucio/mc16_13TeV/25/94/EVNT.14335733._000101.pool.root.1                                                                                                                                 
/pnfs/desy.de/atlas/dq2/atlaslocalgroupdisk/rucio/mc16_13TeV/4e/fe/EVNT.14335733._000102.pool.root.1                                                                                                                                 
/pnfs/desy.de/atlas/dq2/atlaslocalgroupdisk/rucio/mc16_13TeV/a5/99/EVNT.14335733._000103.pool.root.1                                                                                                                                 
/pnfs/desy.de/atlas/dq2/atlaslocalgroupdisk/rucio/mc16_13TeV/53/d6/EVNT.14335733._000104.pool.root.1                                                                                                                                 
/pnfs/desy.de/atlas/dq2/atlaslocalgroupdisk/rucio/mc16_13TeV/c6/8d/EVNT.14335733._000105.pool.root.1                                                                                                                                 
/pnfs/desy.de/atlas/dq2/atlaslocalgroupdisk/rucio/mc16_13TeV/cc/e5/EVNT.14335733._000106.pool.root.1                                                                                                                                 
/pnfs/desy.de/atlas/dq2/atlaslocalgroupdisk/rucio/mc16_13TeV/be/44/EVNT.14335733._000107.pool.root.1                                                                                                                                 
/pnfs/desy.de/atlas/dq2/atlaslocalgroupdisk/rucio/mc16_13TeV/7b/4d/EVNT.14335733._000108.pool.root.1                                                                                                                                 
/pnfs/desy.de/atlas/dq2/atlaslocalgroupdisk/rucio/mc16_13TeV/56/38/EVNT.14335733._000109.pool.root.1                                                                                                                                 
/pnfs/desy.de/atlas/dq2/atlaslocalgroupdisk/rucio/mc16_13TeV/2a/4b/EVNT.14335733._000110.pool.root.1                                                                                                                                 
/pnfs/desy.de/atlas/dq2/atlaslocalgroupdisk/rucio/mc16_13TeV/b4/a7/EVNT.14335733._000111.pool.root.1                                                                                                                                 
/pnfs/desy.de/atlas/dq2/atlaslocalgroupdisk/rucio/mc16_13TeV/a1/19/EVNT.14335733._000112.pool.root.1                                                                                                                                 
/pnfs/desy.de/atlas/dq2/atlaslocalgroupdisk/rucio/mc16_13TeV/36/92/EVNT.14335733._000113.pool.root.1                                                                                                                                 
/pnfs/desy.de/atlas/dq2/atlaslocalgroupdisk/rucio/mc16_13TeV/1d/91/EVNT.14335733._000114.pool.root.1                                                                                                                                 
/pnfs/desy.de/atlas/dq2/atlaslocalgroupdisk/rucio/mc16_13TeV/2a/a3/EVNT.14335733._000115.pool.root.1                                                                                                                                 
/pnfs/desy.de/atlas/dq2/atlaslocalgroupdisk/rucio/mc16_13TeV/2a/f4/EVNT.14335733._000116.pool.root.1                                                                                                                                 
/pnfs/desy.de/atlas/dq2/atlaslocalgroupdisk/rucio/mc16_13TeV/f9/6c/EVNT.14335733._000117.pool.root.1                                                                                                                                 
/pnfs/desy.de/atlas/dq2/atlaslocalgroupdisk/rucio/mc16_13TeV/fa/10/EVNT.14335733._000118.pool.root.1                                                                                                                                 
/pnfs/desy.de/atlas/dq2/atlaslocalgroupdisk/rucio/mc16_13TeV/55/31/EVNT.14335733._000119.pool.root.1                                                                                                                                 
/pnfs/desy.de/atlas/dq2/atlaslocalgroupdisk/rucio/mc16_13TeV/1e/4a/EVNT.14335733._000120.pool.root.1                                                                                                                                 
/pnfs/desy.de/atlas/dq2/atlaslocalgroupdisk/rucio/mc16_13TeV/23/bb/EVNT.14335733._000121.pool.root.1                                                                                                                                 
/pnfs/desy.de/atlas/dq2/atlaslocalgroupdisk/rucio/mc16_13TeV/33/23/EVNT.14335733._000122.pool.root.1                                                                                                                                 
/pnfs/desy.de/atlas/dq2/atlaslocalgroupdisk/rucio/mc16_13TeV/82/13/EVNT.14335733._000123.pool.root.1                                                                                                                                 
/pnfs/desy.de/atlas/dq2/atlaslocalgroupdisk/rucio/mc16_13TeV/50/bb/EVNT.14335733._000124.pool.root.1                                                                                                                                 
/pnfs/desy.de/atlas/dq2/atlaslocalgroupdisk/rucio/mc16_13TeV/a3/95/EVNT.14335733._000125.pool.root.1                                                                                                                                 
